0.000,0.000,0.000,0.000,0.000,0.000,10,0.950,7.080
0.000,0.000,0.000,0.000,0.000,1.037,10,0.950,7.560
0.000,0.000,0.000,0.000,0.539,0.000,10,0.960,7.710
0.000,0.000,0.000,0.000,0.539,1.037,10,0.970,2.580
0.000,0.000,0.000,0.528,0.000,0.000,10,0.960,7.710
0.000,0.000,0.000,0.528,0.000,1.037,10,0.880,7.470
0.000,0.000,0.000,0.528,0.539,0.000,10,0.960,7.710
0.000,0.000,0.000,0.528,0.539,1.037,10,0.970,7.720
0.000,0.000,1.037,0.528,0.539,1.186,10,0.860,3.469
0.000,0.539,0.000,0.528,1.209,1.037,10,0.740,4.959
0.000,0.539,1.037,0.528,1.209,1.186,10,0.850,2.750
0.528,0.000,0.000,1.161,0.539,1.037,10,0.930,5.129
0.528,0.000,1.037,1.161,0.539,1.186,10,0.930,6.330
0.528,0.539,0.000,0.667,0.653,1.000,10,0.980,1.069
0.528,0.539,1.000,0.667,0.653,1.037,10,0.950,6.819
0.528,0.653,0.000,0.667,1.209,1.000,10,0.520,3.170
0.528,0.653,1.000,0.667,1.209,1.037,10,0.890,6.600
0.667,0.539,0.000,1.161,0.653,1.000,10,0.820,3.270
0.667,0.539,1.000,1.161,0.653,1.037,10,0.960,2.740
0.667,0.653,0.000,0.964,0.923,1.000,10,0.970,0.680
0.667,0.653,1.000,0.772,0.749,1.000,10,0.990,0.750
0.667,0.653,1.000,0.772,0.749,1.000,10,1.000,0.850
0.667,0.749,1.000,0.772,0.923,1.000,10,0.990,0.750
0.667,0.749,1.000,0.772,0.923,1.000,10,0.950,0.720
0.772,0.653,1.000,0.964,0.749,1.000,10,0.990,0.750
0.772,0.653,1.000,0.964,0.749,1.000,10,0.940,2.649
0.772,0.749,1.000,0.964,0.923,1.000,10,0.990,0.750
0.772,0.749,1.000,0.867,0.845,1.000,10,1.000,0.840
0.772,0.749,1.000,0.828,0.810,1.000,10,1.000,0.850
0.772,0.749,1.000,0.828,0.810,1.000,10,0.990,0.700
0.772,0.810,1.000,0.828,0.845,1.000,10,1.000,0.850
0.772,0.810,1.000,0.828,0.845,1.000,10,0.930,0.980
0.828,0.749,1.000,0.867,0.810,1.000,10,1.000,0.850
0.828,0.749,1.000,0.867,0.810,1.000,10,0.860,1.550
0.828,0.810,1.000,0.867,0.845,1.000,10,1.000,0.850
0.828,0.810,1.000,0.867,0.845,1.000,10,0.970,0.890
0.772,0.845,1.000,0.867,0.923,1.000,10,1.000,0.840
0.772,0.845,1.000,0.867,0.923,1.000,10,1.000,0.620
0.867,0.749,1.000,0.964,0.845,1.000,10,1.000,0.840
0.867,0.749,1.000,0.964,0.845,1.000,10,0.970,1.830
0.867,0.845,1.000,0.964,0.923,1.000,10,1.000,0.840
0.867,0.845,1.000,0.964,0.923,1.000,10,0.960,0.980
0.667,0.923,0.000,0.964,1.209,1.000,10,0.970,0.680
0.667,0.923,1.000,0.964,1.209,1.000,10,0.930,0.740
0.964,0.653,0.000,1.161,0.923,1.000,10,0.970,0.680
0.964,0.653,1.000,1.161,0.923,1.000,10,0.960,2.030
0.964,0.923,0.000,1.161,1.209,1.000,10,0.970,0.680
0.964,0.923,1.000,1.161,1.209,1.000,10,1.000,0.900
0.667,0.653,1.000,0.949,0.987,1.012,10,0.990,0.920
0.667,0.653,1.012,0.949,0.987,1.037,10,1.000,6.910
0.667,0.987,1.000,0.949,1.209,1.012,10,0.820,1.340
0.667,0.987,1.012,0.949,1.209,1.037,10,0.960,2.160
0.949,0.653,1.000,1.161,0.987,1.012,10,0.960,1.420
0.949,0.653,1.012,1.161,0.987,1.037,10,0.990,1.850
0.949,0.987,1.000,1.161,1.209,1.012,10,0.940,2.180
0.949,0.987,1.012,1.161,1.209,1.037,10,0.930,1.270
0.528,0.539,1.037,0.862,0.928,1.092,10,0.910,5.909
0.528,0.539,1.092,0.862,0.928,1.186,10,0.740,2.470
0.528,0.928,1.037,0.862,1.209,1.092,10,0.980,5.180
0.528,0.928,1.092,0.862,1.209,1.186,10,0.970,6.179
0.862,0.539,1.037,1.161,0.928,1.092,10,0.900,3.290
0.862,0.539,1.092,1.161,0.928,1.186,10,0.980,6.720
0.862,0.928,1.037,1.161,1.209,1.092,10,0.910,1.300
0.862,0.928,1.092,1.161,1.209,1.186,10,0.920,5.220
0.000,0.000,1.186,0.629,0.718,1.426,10,0.840,0.470
0.000,0.000,1.426,0.230,0.623,1.680,10,0.850,1.950
0.000,0.000,1.680,0.230,0.623,16384.000,10,0.890,7.119
0.000,0.623,1.426,0.230,0.718,1.680,10,0.840,4.039
0.000,0.623,1.680,0.230,0.718,16384.000,10,0.780,6.000
0.230,0.000,1.426,0.629,0.623,1.680,10,0.950,7.249
0.230,0.000,1.680,0.629,0.623,16384.000,10,0.610,5.969
0.230,0.623,1.426,0.629,0.718,1.680,10,0.890,4.290
0.230,0.623,1.680,0.629,0.718,16384.000,10,0.650,6.420
0.000,0.718,1.186,0.289,0.907,1.300,10,0.850,6.159
0.000,0.718,1.300,0.289,0.907,1.426,10,0.950,3.889
0.000,0.907,1.186,0.289,1.209,1.300,10,0.900,7.399
0.000,0.907,1.300,0.289,1.209,1.426,10,0.290,7.509
0.289,0.718,1.186,0.629,0.907,1.300,10,0.800,1.759
0.289,0.718,1.300,0.629,0.907,1.426,10,0.880,4.149
0.289,0.907,1.186,0.629,1.209,1.300,10,0.840,0.909
0.289,0.907,1.300,0.629,1.209,1.426,10,0.470,4.509
0.000,0.718,1.426,0.297,0.851,1.728,10,0.890,3.870
0.000,0.718,1.728,0.297,0.851,16384.000,10,0.590,1.720
0.000,0.851,1.426,0.297,1.209,1.728,10,0.850,7.799
0.000,0.851,1.728,0.297,1.209,16384.000,10,0.840,7.749
0.297,0.718,1.426,0.629,0.851,1.728,10,0.870,6.520
0.297,0.718,1.728,0.629,0.851,16384.000,10,0.930,0.269
0.297,0.851,1.426,0.629,1.209,1.728,10,0.870,1.140
0.297,0.851,1.728,0.629,1.209,16384.000,10,0.610,1.010
0.629,0.000,1.186,1.161,0.718,1.426,10,0.960,5.349
0.629,0.000,1.426,1.161,0.718,16384.000,10,0.590,0.079
0.629,0.718,1.186,1.161,1.209,1.426,10,0.850,6.899
0.629,0.718,1.426,1.161,1.209,16384.000,10,0.290,4.789
0.000,1.209,0.000,1.161,16384.000,1.186,10,0.900,1.859
0.000,1.209,1.186,0.913,1.522,1.550,10,0.720,2.349
0.000,1.209,1.550,0.913,1.522,16384.000,10,0.750,1.419
0.000,1.522,1.186,0.913,16384.000,1.550,10,0.960,2.420
0.000,1.522,1.550,0.913,16384.000,16384.000,10,0.610,7.039
0.913,1.209,1.186,1.161,1.522,1.550,10,0.860,0.809
0.913,1.209,1.550,1.161,1.522,16384.000,10,0.830,3.909
0.913,1.522,1.186,1.161,16384.000,1.550,10,0.760,2.969
0.913,1.522,1.550,1.161,16384.000,16384.000,10,0.950,1.070
1.161,0.000,0.000,16384.000,1.209,1.186,10,0.960,1.169
1.161,0.000,1.186,16384.000,1.209,16384.000,10,0.950,2.199
1.161,1.209,0.000,1.753,1.611,1.000,10,0.990,1.180
1.161,1.209,1.000,1.753,1.611,1.045,10,0.960,1.290
1.161,1.611,0.000,1.753,3.836,1.000,10,0.960,0.850
1.161,1.611,1.000,1.753,3.836,1.045,10,0.990,2.000
1.753,1.209,0.000,4.720,1.611,1.000,10,0.950,3.920
1.753,1.209,1.000,4.720,1.611,1.045,10,0.850,3.720
1.753,1.611,0.000,4.720,3.836,1.000,10,0.920,1.230
1.753,1.611,1.000,4.720,3.836,1.045,10,0.970,3.910
1.161,1.209,1.045,2.012,2.012,1.100,10,0.930,1.160
1.161,1.209,1.100,2.012,2.012,1.186,10,0.950,2.099
1.161,2.012,1.045,2.012,3.836,1.100,10,0.860,1.700
1.161,2.012,1.100,2.012,3.836,1.186,10,0.880,1.450
2.012,1.209,1.045,4.720,2.012,1.100,10,0.990,4.760
2.012,1.209,1.100,4.720,2.012,1.186,10,0.890,1.020
2.012,2.012,1.045,4.720,3.836,1.100,10,0.800,0.990
2.012,2.012,1.100,4.720,3.836,1.186,10,0.950,5.690
1.161,3.836,0.000,4.720,16384.000,1.045,10,0.930,3.310
1.161,3.836,1.045,4.720,16384.000,1.186,10,0.840,3.649
4.720,1.209,0.000,16384.000,3.836,1.045,10,0.770,6.850
4.720,1.209,1.045,16384.000,3.836,1.186,10,0.550,0.209
4.720,3.836,0.000,16384.000,16384.000,1.045,10,0.880,3.990
4.720,3.836,1.045,16384.000,16384.000,1.186,10,0.350,5.970
1.161,1.209,1.186,2.194,2.433,1.340,10,1.000,2.219
1.161,1.209,1.340,2.194,2.433,1.534,10,0.910,2.359
1.161,2.433,1.186,2.194,5.398,1.340,10,0.850,1.169
1.161,2.433,1.340,2.194,5.398,1.534,10,0.650,7.219
2.194,1.209,1.186,5.235,2.433,1.340,10,0.850,6.989
2.194,1.209,1.340,5.235,2.433,1.534,10,0.280,7.459
2.194,2.433,1.186,5.235,5.398,1.340,10,0.760,4.169
2.194,2.433,1.340,5.235,5.398,1.534,10,0.300,4.379
1.161,1.209,1.534,2.167,2.732,1.861,10,0.450,3.250
1.161,1.209,1.861,2.167,2.732,16384.000,10,0.240,5.070
1.161,2.732,1.534,2.167,5.398,1.861,10,0.910,6.240
1.161,2.732,1.861,2.167,5.398,16384.000,10,0.730,2.420
2.167,1.209,1.534,5.235,2.732,1.861,10,0.880,2.590
2.167,1.209,1.861,5.235,2.732,16384.000,10,1.000,2.180
2.167,2.732,1.534,5.235,5.398,1.861,10,0.040,1.259
2.167,2.732,1.861,5.235,5.398,16384.000,10,0.140,7.560
1.161,5.398,1.186,5.235,16384.000,1.534,10,0.980,5.769
1.161,5.398,1.534,5.235,16384.000,16384.000,10,0.040,3.269
5.235,1.209,1.186,16384.000,5.398,1.534,10,0.820,2.119
5.235,1.209,1.534,16384.000,5.398,16384.000,10,0.980,1.049
5.235,5.398,1.186,12.585,11.848,1.352,10,0.050,0.049
5.235,5.398,1.352,12.585,11.848,1.534,10,0.050,0.049
5.235,11.848,1.186,12.585,16384.000,1.352,10,0.050,0.049
5.235,11.848,1.352,12.585,16384.000,1.534,10,0.050,0.049
12.585,5.398,1.186,16384.000,11.848,1.352,10,0.050,0.049
12.585,5.398,1.352,16384.000,11.848,1.534,10,0.050,0.049
12.585,11.848,1.186,16384.000,16384.000,1.352,10,0.050,0.049
12.585,11.848,1.352,16384.000,16384.000,1.534,10,0.050,0.049
5.235,5.398,1.534,13.718,16.121,1.962,10,0.350,7.359
5.235,5.398,1.962,13.718,16.121,16384.000,10,0.100,7.139
5.235,16.121,1.534,13.718,16384.000,1.962,10,1.000,3.430
5.235,16.121,1.962,13.718,16384.000,16384.000,10,0.650,4.340
13.718,5.398,1.534,16384.000,16.121,1.962,10,0.610,2.300
13.718,5.398,1.962,16384.000,16.121,16384.000,10,0.270,4.190
13.718,16.121,1.534,16384.000,16384.000,1.962,10,0.460,2.200
13.718,16.121,1.962,16384.000,16384.000,16384.000,10,0.050,2.269
